0.65	0.75
0.649977154	0.752617861
0.649908624	0.755234925
0.64979443	0.757850393
0.649634608	0.760463471
0.649429205	0.763073361
0.649178284	0.765679269
0.648881923	0.768280402
0.64854021	0.770875965
0.648153251	0.77346517
0.647721163	0.776047227
0.647244078	0.778621349
0.64672214	0.781186754
0.64615551	0.783742658
0.645544359	0.786288284
0.644888874	0.788822857
0.644189254	0.791345603
0.643445713	0.793855756
0.642658477	0.796352549
0.641827786	0.798835223
0.640953893	0.801303021
0.640037064	0.803755192
0.639077578	0.806190989
0.638075728	0.808609669
0.637031819	0.811010496
0.635946168	0.813392739
0.634819107	0.815755672
0.633650979	0.818098575
0.632442139	0.820420734
0.631192956	0.822721443
0.629903811	0.825
0.628575095	0.827255711
0.627207214	0.82948789
0.625800585	0.831695855
0.624355636	0.833878936
0.622872807	0.836036465
0.621352549	0.838167788
0.619795327	0.840272253
0.618201613	0.842349221
0.616571894	0.844398059
0.614906666	0.846418141
0.613206437	0.848408854
0.611471724	0.850369591
0.609703055	0.852299754
0.60790097	0.854198756
0.606066017	0.856066017
0.604198756	0.85790097
0.602299754	0.859703055
0.600369591	0.861471724
0.598408854	0.863206437
0.596418141	0.864906666
0.594398059	0.866571894
0.592349221	0.868201613
0.590272253	0.869795327
0.588167788	0.871352549
0.586036465	0.872872807
0.583878936	0.874355636
0.581695855	0.875800585
0.57948789	0.877207214
0.577255711	0.878575095
0.575	0.879903811
0.572721443	0.881192956
0.570420734	0.882442139
0.568098575	0.883650979
0.565755672	0.884819107
0.563392739	0.885946168
0.561010496	0.887031819
0.558609669	0.888075728
0.556190989	0.889077578
0.553755192	0.890037064
0.551303021	0.890953893
0.548835223	0.891827786
0.546352549	0.892658477
0.543855756	0.893445713
0.541345603	0.894189254
0.538822857	0.894888874
0.536288284	0.895544359
0.533742658	0.89615551
0.531186754	0.89672214
0.528621349	0.897244078
0.526047227	0.897721163
0.52346517	0.898153251
0.520875965	0.89854021
0.518280402	0.898881923
0.515679269	0.899178284
0.513073361	0.899429205
0.510463471	0.899634608
0.507850393	0.89979443
0.505234925	0.899908624
0.502617861	0.899977154
0.5	0.9
0.497382139	0.899977154
0.494765075	0.899908624
0.492149607	0.89979443
0.489536529	0.899634608
0.486926639	0.899429205
0.484320731	0.899178284
0.481719598	0.898881923
0.479124035	0.89854021
0.47653483	0.898153251
0.473952773	0.897721163
0.471378651	0.897244078
0.468813246	0.89672214
0.466257342	0.89615551
0.463711716	0.895544359
0.461177143	0.894888874
0.458654397	0.894189254
0.456144244	0.893445713
0.453647451	0.892658477
0.451164777	0.891827786
0.448696979	0.890953893
0.446244808	0.890037064
0.443809011	0.889077578
0.441390331	0.888075728
0.438989504	0.887031819
0.436607261	0.885946168
0.434244328	0.884819107
0.431901425	0.883650979
0.429579266	0.882442139
0.427278557	0.881192956
0.425	0.879903811
0.422744289	0.878575095
0.42051211	0.877207214
0.418304145	0.875800585
0.416121064	0.874355636
0.413963535	0.872872807
0.411832212	0.871352549
0.409727747	0.869795327
0.407650779	0.868201613
0.405601941	0.866571894
0.403581859	0.864906666
0.401591146	0.863206437
0.399630409	0.861471724
0.397700246	0.859703055
0.395801244	0.85790097
0.393933983	0.856066017
0.39209903	0.854198756
0.390296945	0.852299754
0.388528276	0.850369591
0.386793563	0.848408854
0.385093334	0.846418141
0.383428106	0.844398059
0.381798387	0.842349221
0.380204673	0.840272253
0.378647451	0.838167788
0.377127193	0.836036465
0.375644364	0.833878936
0.374199415	0.831695855
0.372792786	0.82948789
0.371424905	0.827255711
0.370096189	0.825
0.368807044	0.822721443
0.367557861	0.820420734
0.366349021	0.818098575
0.365180893	0.815755672
0.364053832	0.813392739
0.362968181	0.811010496
0.361924272	0.808609669
0.360922422	0.806190989
0.359962936	0.803755192
0.359046107	0.801303021
0.358172214	0.798835223
0.357341523	0.796352549
0.356554287	0.793855756
0.355810746	0.791345603
0.355111126	0.788822857
0.354455641	0.786288284
0.35384449	0.783742658
0.35327786	0.781186754
0.352755922	0.778621349
0.352278837	0.776047227
0.351846749	0.77346517
0.35145979	0.770875965
0.351118077	0.768280402
0.350821716	0.765679269
0.350570795	0.763073361
0.350365392	0.760463471
0.35020557	0.757850393
0.350091376	0.755234925
0.350022846	0.752617861
0.35	0.75
0.350022846	0.747382139
0.350091376	0.744765075
0.35020557	0.742149607
0.350365392	0.739536529
0.350570795	0.736926639
0.350821716	0.734320731
0.351118077	0.731719598
0.35145979	0.729124035
0.351846749	0.72653483
0.352278837	0.723952773
0.352755922	0.721378651
0.35327786	0.718813246
0.35384449	0.716257342
0.354455641	0.713711716
0.355111126	0.711177143
0.355810746	0.708654397
0.356554287	0.706144244
0.357341523	0.703647451
0.358172214	0.701164777
0.359046107	0.698696979
0.359962936	0.696244808
0.360922422	0.693809011
0.361924272	0.691390331
0.362968181	0.688989504
0.364053832	0.686607261
0.365180893	0.684244328
0.366349021	0.681901425
0.367557861	0.679579266
0.368807044	0.677278557
0.370096189	0.675
0.371424905	0.672744289
0.372792786	0.67051211
0.374199415	0.668304145
0.375644364	0.666121064
0.377127193	0.663963535
0.378647451	0.661832212
0.380204673	0.659727747
0.381798387	0.657650779
0.383428106	0.655601941
0.385093334	0.653581859
0.386793563	0.651591146
0.388528276	0.649630409
0.390296945	0.647700246
0.39209903	0.645801244
0.393933983	0.643933983
0.395801244	0.64209903
0.397700246	0.640296945
0.399630409	0.638528276
0.401591146	0.636793563
0.403581859	0.635093334
0.405601941	0.633428106
0.407650779	0.631798387
0.409727747	0.630204673
0.411832212	0.628647451
0.413963535	0.627127193
0.416121064	0.625644364
0.418304145	0.624199415
0.42051211	0.622792786
0.422744289	0.621424905
0.425	0.620096189
0.427278557	0.618807044
0.429579266	0.617557861
0.431901425	0.616349021
0.434244328	0.615180893
0.436607261	0.614053832
0.438989504	0.612968181
0.441390331	0.611924272
0.443809011	0.610922422
0.446244808	0.609962936
0.448696979	0.609046107
0.451164777	0.608172214
0.453647451	0.607341523
0.456144244	0.606554287
0.458654397	0.605810746
0.461177143	0.605111126
0.463711716	0.604455641
0.466257342	0.60384449
0.468813246	0.60327786
0.471378651	0.602755922
0.473952773	0.602278837
0.47653483	0.601846749
0.479124035	0.60145979
0.481719598	0.601118077
0.484320731	0.600821716
0.486926639	0.600570795
0.489536529	0.600365392
0.492149607	0.60020557
0.494765075	0.600091376
0.497382139	0.600022846
0.5	0.6
0.502617861	0.600022846
0.505234925	0.600091376
0.507850393	0.60020557
0.510463471	0.600365392
0.513073361	0.600570795
0.515679269	0.600821716
0.518280402	0.601118077
0.520875965	0.60145979
0.52346517	0.601846749
0.526047227	0.602278837
0.528621349	0.602755922
0.531186754	0.60327786
0.533742658	0.60384449
0.536288284	0.604455641
0.538822857	0.605111126
0.541345603	0.605810746
0.543855756	0.606554287
0.546352549	0.607341523
0.548835223	0.608172214
0.551303021	0.609046107
0.553755192	0.609962936
0.556190989	0.610922422
0.558609669	0.611924272
0.561010496	0.612968181
0.563392739	0.614053832
0.565755672	0.615180893
0.568098575	0.616349021
0.570420734	0.617557861
0.572721443	0.618807044
0.575	0.620096189
0.577255711	0.621424905
0.57948789	0.622792786
0.581695855	0.624199415
0.583878936	0.625644364
0.586036465	0.627127193
0.588167788	0.628647451
0.590272253	0.630204673
0.592349221	0.631798387
0.594398059	0.633428106
0.596418141	0.635093334
0.598408854	0.636793563
0.600369591	0.638528276
0.602299754	0.640296945
0.604198756	0.64209903
0.606066017	0.643933983
0.60790097	0.645801244
0.609703055	0.647700246
0.611471724	0.649630409
0.613206437	0.651591146
0.614906666	0.653581859
0.616571894	0.655601941
0.618201613	0.657650779
0.619795327	0.659727747
0.621352549	0.661832212
0.622872807	0.663963535
0.624355636	0.666121064
0.625800585	0.668304145
0.627207214	0.67051211
0.628575095	0.672744289
0.629903811	0.675
0.631192956	0.677278557
0.632442139	0.679579266
0.633650979	0.681901425
0.634819107	0.684244328
0.635946168	0.686607261
0.637031819	0.688989504
0.638075728	0.691390331
0.639077578	0.693809011
0.640037064	0.696244808
0.640953893	0.698696979
0.641827786	0.701164777
0.642658477	0.703647451
0.643445713	0.706144244
0.644189254	0.708654397
0.644888874	0.711177143
0.645544359	0.713711716
0.64615551	0.716257342
0.64672214	0.718813246
0.647244078	0.721378651
0.647721163	0.723952773
0.648153251	0.72653483
0.64854021	0.729124035
0.648881923	0.731719598
0.649178284	0.734320731
0.649429205	0.736926639
0.649634608	0.739536529
0.64979443	0.742149607
0.649908624	0.744765075
0.649977154	0.747382139